<?xml version="1.0" encoding="utf-8"?>
<!-- Generator: Adobe Illustrator 24.0.1, SVG Export Plug-In . SVG Version: 6.00 Build 0)  -->
<svg version="1.1" id="Ebene_1" xmlns="http://www.w3.org/2000/svg" xmlns:xlink="http://www.w3.org/1999/xlink" x="0px" y="0px"
	 width="26.2px" height="24.2px" viewBox="0 0 26.2 24.2" style="enable-background:new 0 0 26.2 24.2;" xml:space="preserve">
<style type="text/css">
	.st0{fill:none;stroke:#000000;stroke-width:2;}
</style>
<g id="Gruppe_70" transform="translate(1421.647 -650) rotate(90)">
	<path id="Pfad_33" class="st0" d="M673.5,1408.8l-11.4,11.4l-11.4-11.4"/>
	<line id="Linie_2" class="st0" x1="662.1" y1="1395.4" x2="662.1" y2="1420.2"/>
</g>
</svg>
