<?xml version="1.0" encoding="utf-8"?>
<!-- Generator: Adobe Illustrator 18.0.0, SVG Export Plug-In . SVG Version: 6.00 Build 0)  -->
<!DOCTYPE svg PUBLIC "-//W3C//DTD SVG 1.1//EN" "http://www.w3.org/Graphics/SVG/1.1/DTD/svg11.dtd">
<svg version="1.1" id="Ebene_1" xmlns="http://www.w3.org/2000/svg" xmlns:xlink="http://www.w3.org/1999/xlink" x="0px" y="0px"
	 width="24px" height="23px" viewBox="-0.6 0.2 24 23" enable-background="new -0.6 0.2 24 23" xml:space="preserve">
<path fill="#FF0080" d="M18.1,5.1l-6.6-4.6L4.9,5.2v3.7L9.7,6l0.1,10.3h4L13.6,6.1l4.5,2.8"/>
<path fill="#FF0080" d="M22.2,22.5H1.6v-9.8h3.9v5.9h12.9V12h3.9"/>
</svg>
