<?xml version="1.0" encoding="utf-8"?>
<!-- Generator: Adobe Illustrator 22.1.0, SVG Export Plug-In . SVG Version: 6.00 Build 0)  -->
<svg version="1.1" id="Ebene_1" xmlns="http://www.w3.org/2000/svg" xmlns:xlink="http://www.w3.org/1999/xlink" x="0px" y="0px"
	 width="19.4px" height="11.1px" viewBox="0 0 19.4 11.1" style="enable-background:new 0 0 19.4 11.1;" xml:space="preserve">
<style type="text/css">
	.st0{fill:#0A9DD1;}
</style>
<path class="st0" d="M13,11.1l-1.1-1.4c0,0,4-3.3,4.1-3.3H0V4.7h16V4.6c-0.1,0-4.2-3.3-4.2-3.3L12.9,0l6.5,5.5L13,11.1z"/>
</svg>
